<?xml version="1.0" encoding="UTF-8" standalone="no"?>
<!-- Created with Inkscape (http://www.inkscape.org/) -->

<svg
   width="240"
   height="240"
   viewBox="0 0 63.499999 63.5"
   version="1.1"
   id="svg5"
   inkscape:version="1.3.1 (6036e22fae, 2023-11-19, custom)"
   sodipodi:docname="image-linear-gradient.svg"
   xmlns:inkscape="http://www.inkscape.org/namespaces/inkscape"
   xmlns:sodipodi="http://sodipodi.sourceforge.net/DTD/sodipodi-0.dtd"
   xmlns="http://www.w3.org/2000/svg"
   xmlns:svg="http://www.w3.org/2000/svg">
  <sodipodi:namedview
     id="namedview7"
     pagecolor="#ffffff"
     bordercolor="#666666"
     borderopacity="1.0"
     inkscape:showpageshadow="2"
     inkscape:pageopacity="0.0"
     inkscape:pagecheckerboard="0"
     inkscape:deskcolor="#d1d1d1"
     inkscape:document-units="px"
     showgrid="true"
     inkscape:zoom="3.5045044"
     inkscape:cx="105.86376"
     inkscape:cy="119.56042"
     inkscape:current-layer="layer1">
    <inkscape:grid
       type="xygrid"
       id="grid29"
       originx="0"
       originy="0"
       spacingy="0.26458333"
       spacingx="0.26458333"
       units="px"
       visible="true" />
  </sodipodi:namedview>
  <defs
     id="defs2" />
  <g
     inkscape:label="Layer 1"
     inkscape:groupmode="layer"
     id="layer1"
     transform="translate(-21.166666,-21.166666)">
    <path
       style="fill:none;stroke:#000000;stroke-width:0.396875;stroke-linecap:butt;stroke-linejoin:miter;stroke-dasharray:none;stroke-opacity:1"
       d="M 26.458333,21.166666 V 84.666665"
       id="path135"
       sodipodi:nodetypes="cc" />
    <path
       style="fill:none;stroke:#000000;stroke-width:0.396875;stroke-linecap:butt;stroke-linejoin:miter;stroke-dasharray:none;stroke-opacity:1"
       d="M 52.916666,21.166666 V 84.666665"
       id="path135-3"
       sodipodi:nodetypes="cc" />
    <path
       style="fill:none;stroke:#000000;stroke-width:0.396875;stroke-linecap:butt;stroke-linejoin:miter;stroke-dasharray:none;stroke-opacity:1"
       d="M 79.374999,21.166666 V 84.666665"
       id="path135-3-6"
       sodipodi:nodetypes="cc" />
    <path
       style="fill:none;stroke:#000000;stroke-width:0.396875;stroke-linecap:butt;stroke-linejoin:miter;stroke-dasharray:none;stroke-opacity:1"
       d="M 21.166666,26.458333 H 84.666665"
       id="path395"
       sodipodi:nodetypes="cc" />
    <path
       style="fill:none;stroke:#000000;stroke-width:0.396875;stroke-linecap:butt;stroke-linejoin:miter;stroke-dasharray:none;stroke-opacity:1"
       d="M 21.166666,52.916666 H 84.666665"
       id="path395-7"
       sodipodi:nodetypes="cc" />
    <path
       style="fill:none;stroke:#000000;stroke-width:0.396875;stroke-linecap:butt;stroke-linejoin:miter;stroke-dasharray:none;stroke-opacity:1"
       d="M 21.166666,79.374999 H 84.666665"
       id="path395-5"
       sodipodi:nodetypes="cc" />
    <circle
       style="opacity:1;fill:#000000;fill-opacity:1;stroke:none;stroke-width:0.396875;stroke-linecap:square;stroke-linejoin:miter;stroke-miterlimit:4;stroke-dasharray:none;stroke-dashoffset:0;stroke-opacity:1"
       id="path1234"
       cx="39.6875"
       cy="39.6875"
       r="1.3229166" />
    <circle
       style="fill:#cc3232;fill-opacity:1;stroke:none;stroke-width:0.396875;stroke-linecap:square;stroke-linejoin:miter;stroke-miterlimit:4;stroke-dasharray:none;stroke-dashoffset:0;stroke-opacity:1"
       id="path1234-6"
       cx="56.885414"
       cy="46.302082"
       r="1.3229166" />
    <circle
       style="fill:#3281cc;fill-opacity:1;stroke:none;stroke-width:0.397754;stroke-linecap:square;stroke-linejoin:miter;stroke-miterlimit:4;stroke-dasharray:none;stroke-dashoffset:0;stroke-opacity:1"
       id="path1234-6-6"
       cx="66.145836"
       cy="46.302082"
       r="1.0583333" />
    <circle
       style="fill:#3281cc;fill-opacity:1;stroke:none;stroke-width:0.397754;stroke-linecap:square;stroke-linejoin:miter;stroke-miterlimit:4;stroke-dasharray:none;stroke-dashoffset:0;stroke-opacity:1"
       id="path1234-6-6-7"
       cx="56.885414"
       cy="39.6875"
       r="1.0583333" />
    <circle
       style="fill:#3281cc;fill-opacity:1;stroke:none;stroke-width:0.397754;stroke-linecap:square;stroke-linejoin:miter;stroke-miterlimit:4;stroke-dasharray:none;stroke-dashoffset:0;stroke-opacity:1"
       id="path1234-6-6-5"
       cx="39.6875"
       cy="46.302082"
       r="1.0583333" />
    <circle
       style="fill:#3281cc;fill-opacity:1;stroke:none;stroke-width:0.397754;stroke-linecap:square;stroke-linejoin:miter;stroke-miterlimit:4;stroke-dasharray:none;stroke-dashoffset:0;stroke-opacity:1"
       id="path1234-6-6-3"
       cx="56.885414"
       cy="66.145836"
       r="1.0583333" />
    <circle
       style="opacity:1;fill:#010101;fill-opacity:1;stroke:none;stroke-width:0.396875;stroke-linecap:square;stroke-linejoin:miter;stroke-miterlimit:4;stroke-dasharray:none;stroke-dashoffset:0;stroke-opacity:1"
       id="circle1236"
       cx="39.6875"
       cy="66.145836"
       r="1.3229166" />
    <circle
       style="fill:#000000;fill-opacity:1;stroke:none;stroke-width:0.396875;stroke-linecap:square;stroke-linejoin:miter;stroke-miterlimit:4;stroke-dasharray:none;stroke-dashoffset:0;stroke-opacity:1"
       id="circle1236-5"
       cx="66.145836"
       cy="66.145836"
       r="1.3229166" />
    <circle
       style="fill:#000000;fill-opacity:1;stroke:none;stroke-width:0.396875;stroke-linecap:square;stroke-linejoin:miter;stroke-miterlimit:4;stroke-dasharray:none;stroke-dashoffset:0;stroke-opacity:1"
       id="circle1236-3"
       cx="66.145836"
       cy="39.6875"
       r="1.3229166" />
    <path
       style="fill:none;stroke:#418800;stroke-width:0.529167;stroke-linecap:butt;stroke-linejoin:miter;stroke-dasharray:none;stroke-opacity:1"
       d="M 60.854166,39.687499 V 66.145832"
       id="path1320-7"
       sodipodi:nodetypes="cc" />
    <path
       style="fill:none;stroke:#418800;stroke-width:0.529167;stroke-linecap:butt;stroke-linejoin:miter;stroke-dasharray:none;stroke-opacity:1"
       d="m 66.145832,50.270833 -26.458333,0"
       id="path1320-7-0"
       sodipodi:nodetypes="cc" />
    <path
       style="fill:none;stroke:#418800;stroke-width:0.264583px;stroke-linecap:butt;stroke-linejoin:miter;stroke-opacity:1"
       d="m 39.687499,48.947916 0,2.645833"
       id="path9696-9-2"
       sodipodi:nodetypes="cc" />
    <path
       style="fill:none;stroke:#418800;stroke-width:0.264583px;stroke-linecap:butt;stroke-linejoin:miter;stroke-opacity:1"
       d="m 66.145832,48.947916 v 2.645833"
       id="path9696-9-2-2"
       sodipodi:nodetypes="cc" />
    <path
       style="fill:none;stroke:#418800;stroke-width:0.264583px;stroke-linecap:butt;stroke-linejoin:miter;stroke-opacity:1"
       d="M 62.177082,39.687499 H 59.531249"
       id="path9696-9-2-2-5"
       sodipodi:nodetypes="cc" />
    <path
       style="fill:none;stroke:#418800;stroke-width:0.264583px;stroke-linecap:butt;stroke-linejoin:miter;stroke-opacity:1"
       d="M 62.177082,66.145832 H 59.531249"
       id="path9696-9-2-2-5-6"
       sodipodi:nodetypes="cc" />
    <text
       xml:space="preserve"
       style="font-style:normal;font-variant:normal;font-weight:normal;font-stretch:normal;font-size:4.23333px;line-height:1.25;font-family:sans-serif;-inkscape-font-specification:'sans-serif, Normal';font-variant-ligatures:normal;font-variant-caps:normal;font-variant-numeric:normal;font-feature-settings:normal;text-align:start;letter-spacing:0px;word-spacing:0px;writing-mode:lr-tb;text-anchor:start;fill:#000000;fill-opacity:1;stroke:none;stroke-width:0.264583"
       x="45.965176"
       y="50.469864"
       id="text1"><tspan
         sodipodi:role="line"
         id="tspan1"
         style="stroke-width:0.264583"
         x="45.965176"
         y="50.469864">-</tspan></text>
    <text
       xml:space="preserve"
       style="font-style:normal;font-variant:normal;font-weight:normal;font-stretch:normal;font-size:4.23333px;line-height:1.25;font-family:sans-serif;-inkscape-font-specification:'sans-serif, Normal';font-variant-ligatures:normal;font-variant-caps:normal;font-variant-numeric:normal;font-feature-settings:normal;text-align:start;letter-spacing:0px;word-spacing:0px;writing-mode:lr-tb;text-anchor:start;fill:#000000;fill-opacity:1;stroke:none;stroke-width:0.264583"
       x="61.297718"
       y="44.356007"
       id="text1-2"><tspan
         sodipodi:role="line"
         id="tspan1-9"
         style="stroke-width:0.264583"
         x="61.297718"
         y="44.356007">-</tspan></text>
  </g>
</svg>
